{
  "_comment": "note you will need to restart the application when you make changes to this file",
  "settings": {
    "acs": "http://localhost:3000/saml/consumeSaml",
    "entity_id": "https://auth-manager-dev.com",
    "sso_url": "https://shib.oit.duke.edu/idp/profile/SAML2/Redirect/SSO",
    "logout_return_url": "http://localhost:3000",
    "primary_id": "eduPersonPrincipalName",
    "sp_session_timeout": 1,
    "sp_session_lifetime": 8,
    "saml_logging": true
  },
  "attribute_map": {
    "urn:oid:1.3.6.1.4.1.5923.1.1.1.9": "eduPersonScopedAffiliation",
    "urn:oid:1.3.6.1.4.1.5923.1.1.1.6": "eduPersonPrincipalName",
    "urn:oid:2.5.4.3": "cn",
    "urn:oid:0.9.2342.19200300.100.1.1": "uid",
    "urn:oid:0.9.2342.19200300.100.1.3": "mail",
    "urn:oid:1.3.6.1.4.1.5923.1.1.1.5": "eduPersonPrimaryAffiliation",
    "urn:oid:2.16.840.1.113730.3.1.241": "displayName",
    "urn:mace:duke.edu:idms:unique-id": "duDukeID",
    "urn:mace:duke.edu:idms:dku-id": "dku-id",
    "urn:oid:1.3.6.1.4.1.5923.1.5.1.1": "isMemberOf",
    "urn:oid:2.5.4.42": "givenName",
    "urn:oid:2.5.4.4": "sn",
    "urn:oid:2.5.4.11": "ou",
    "urn:oid:1.3.6.1.4.1.5923.1.1.1.1": "eduPersonAffiliation",
    "urn:oid:2.5.4.20": "telephoneNumber",
    "urn:oid:2.5.4.12": "title",
    "urn:mace:duke.edu:idms:middle-name1": "duMiddleName1",
    "urn:mace:duke.edu:idms:proxy-token": "duProxyToken"
  }
}
